{
    "success": "blog mock",
    "blog": {
        "blog_id": 3,
        "title": "Novinky roku 2018",
        "content": "<p> Lorem ipsum dolor sit, amet consectetur adipisicing elit. Iure eum praesentium, hic eligendi, dolorem in quod officiis, nulla atque minus. </p> <p> Lorem ipsum dolor sit, amet consectetur adipisicing elit. Iure eum praesentium, hic eligendi, dolorem in quod officiis, nulla atque minus sit numquam officiis, nulla. </p> <p> Lorem ipsum dolor sit, amet consectetur adipisicing elit. Iure eum praesentium, hic eligendi. </p> <h3>Pár dôležitých rád</h3> <p> Lorem ipsum dolor sit amet consectetur adipisicing elit. Aliquam nobis <a href='#'>paborum</a> sunt sequi ab mollitia quasi adipisci eaque deleniti repellendus. Vero libero minus et consequatur, architecto enim repellat excepturi magnam. </p> <p> Lorem ipsum dolor sit amet, consectetur adipisicing elit. Ipsum error vitae alias officiis, odit eos quidem recusandae eveniet dolores, numquam aliquam reprehenderit excepturi reiciendis ab consectetur. Aperiam maxime dolor ut! aliquam reprehenderit excepturi reiciendis ab consectetur. Aperiam maxime dolor ut! </p> <img src='/assets/mocks/images/blog1.jpg' alt='article-content-photo'> <h6>Rada nad zlato</h6> <p> Lorem ipsum dolor, sit amet consectetur adipisicing elit. Quis eum vero aliquid eveniet autem amet, tempora labore consequuntur reprehenderit ab? Quos facilis sit dolores libero necessitatibus architecto dolore, inventore voluptatem. </p> <p> Lorem, ipsum dolor sit amet <a>consectetur</a> adipisicing elit. Modi, nihil nisi. Eaque animi, eius consequatur ut fuga nemo. </p>",
		"photo": {
			"path": "assets/mocks/images/blog3.jpg"
		},
		"_tags": [
			{
				"category_id": 1,
	            "name": "Európa",
				"label": "europa"
			},
			{
				"category_id": 4,
	            "name": "Dovolenka na pláži",
				"label": "europa"
			},
			{
				"category_id": 5,
	            "name": "Letná dovolenka",
				"label": "europa"
			}
		],
        "date": "12. Sep. 2018",
        "country": "Francúzsko"
    }
}
