{
	"success": "blog",
	"blog": {
		"id": 8,
		"user_id": 3,
		"title": "Porazte \u010dasov\u00e9 p\u00e1sma pri cestovan\u00ed",
		"slug": "porazte-casove-pasma-pri-cestovani-s-touto-vychytavkou-vas-jet-lag-nezaskoci",
		"excerpt": "",
		"content": "###### ## Syndr\u00f3m zmeny \u010dasov\u00fdch p\u00e1sem postihuje takmer ka\u017ed\u00e9ho cestovate\u013ea, ktor\u00fd m\u00e1 za sebou dlh\u00fd let zo z\u00e1padu na v\u00fdchod alebo opa\u010dne. Na\u0161\u0165astie, existuje nieko\u013eko zaru\u010den\u00fdch met\u00f3d, ako ho zmierni\u0165.\r\n\r\nZimn\u00fd \u010di letn\u00fd \u010das? Pr\u00e1ve t\u00e1to ot\u00e1zka v poslednom obdob\u00ed rozdelila Eur\u00f3pu na dva t\u00e1bory. K\u00fdm pre niektor\u00fdch i\u0161lo o t\u00e9mu d\u00f4le\u017eit\u00fa, in\u00ed argumentovali t\u00fdm, \u017ee striedanie \u010dasu nem\u00e1 na \u013eud\u00ed ani z\u010faleka tak\u00fd vplyv ako syndr\u00f3m zmeny \u010dasov\u00fdch p\u00e1sem.\r\n\r\nDenne \u201ekri\u017euj\u00fa\u201c oblohu desa\u0165tis\u00edce lietadiel. Len tak pre zauj\u00edmavos\u0165, 3. j\u00fala 2018 bolo vo vzduchu a\u017e 202 157 strojov a pod\u013ea FlightRadar24 i\u0161lo zatia\u013e o najru\u0161nej\u0161\u00ed leteck\u00fd de\u0148 v hist\u00f3rii \u013eudstva.\r\n\r\nZauj\u00edmav\u00fd je aj \u00fadaj, pod\u013ea ktor\u00e9ho sa vlani na letisk\u00e1ch \u201epremleli\u201c a\u017e \u0161tyri miliardy pasa\u017eierov, z \u010doho vypl\u00fdva, \u017ee z\u00e1ujem o lietanie rastie aj na\u010falej. Prispieva k tomu nielen to, \u017ee lietanie je r\u00fdchly a najbezpe\u010dnej\u0161\u00ed sp\u00f4sob dopravy, ale aj priazniv\u00e9 ceny l\u00edstkov, ktor\u00e9 si tak m\u00f4\u017ee dovoli\u0165 ove\u013ea viac \u013eud\u00ed.\r\n\r\n\r\n##### Da\u0148 za r\u00fdchlos\u0165\r\n\r\nDlh\u00e9 lety zo z\u00e1padu na v\u00fdchod alebo opa\u010dne si v\u0161ak u cestuj\u00facich vyberaj\u00fa svoju da\u0148. Takmer ka\u017ed\u00e9ho cestovate\u013ea toti\u017e postihuje takzvan\u00fd jet lag.\r\n\r\nIde o syndr\u00f3m zmeny \u010dasov\u00fdch p\u00e1sem, ktor\u00fdm trpia predov\u0161etk\u00fdm pasa\u017eieri, ktor\u00ed pravidelne lietaj\u00fa z jedn\u00e9ho konca sveta na druh\u00fd. Jet lag sa v\u0161ak nevyh\u00fdba ani ob\u010dasn\u00fdm cestuj\u00facim. \r\n\r\nOrganizmus ka\u017ed\u00e9ho \u010dloveka toti\u017e funguje na z\u00e1klade ak\u00fdchsi biohod\u00edn, ktor\u00e9 m\u00f4\u017ee dlh\u00e9 cestovanie z bodu A do bodu B ve\u013emi \u013eahko vyradi\u0165 zo zabehnut\u00e9ho rytmu.\r\n\r\nHoci si to mo\u017eno ani neuvedomujeme, na\u0161e telo je \u00fazko naviazan\u00e9 na slne\u010dn\u00e9 svetlo. Po\u010das 24 hod\u00edn sa v na\u0161om tele men\u00ed vn\u00fatorn\u00e1 teplota, hladina horm\u00f3nov, ale aj \u010fal\u0161ie biologick\u00e9 hodnoty. Ne\u010dakan\u00e1 zmena \u010dasov\u00e9ho p\u00e1sma n\u00e1s tak m\u00f4\u017ee takpovediac vyhodi\u0165 zo zabehnut\u00fdch ko\u013eaj\u00ed.\r\n\r\n![foto](https://s3.eu-central-1.amazonaws.com/vacatuner-system-emails/vacatuner/jet-lag-02.jpg \"toto je logo\")\r\n\r\n\r\n##### Od lietania a\u017e po depresiu\r\n\r\n\u201eP\u00e1smov\u00fa chorobu\u201c v\u0161ak pre\u017e\u00edva ka\u017ed\u00fd organizmus \u00faplne individu\u00e1lne. Inak sa prejavuje u mal\u00fdch det\u00ed, u mlad\u00fdch \u013eud\u00ed pln\u00fdch energie a inak zase u t\u00fdch star\u0161\u00edch. Ve\u013ek\u00fd vplyv na jet lag m\u00e1 v\u0161ak nielen n\u00e1\u0161 vek, ale aj fyzick\u00e1 kond\u00edcia a celkov\u00fd \u017eivotn\u00fd \u0161t\u00fdl, ktor\u00fd vedieme.  \r\n\r\n##### Zato\u010dte s jet lagom\r\n\r\nAj proti \u201ep\u00e1smovej chorobe\u201c sa v\u0161ak d\u00e1 \u00fa\u010dinne bojova\u0165. Sta\u010d\u00ed dodr\u017ea\u0165 zop\u00e1r \u00fa\u010dinn\u00fdch r\u00e1d:\r\n\r\n1. **Pred odletom sa poriadne vyspite.** Toto je asi najd\u00f4le\u017eitej\u0161ie, preto\u017ee ak\u00e1ko\u013evek d\u00e1vka energie navy\u0161e v\u00e1m pom\u00f4\u017ee \u00fa\u010dinne prekona\u0165 \u201ep\u00e1smov\u00fa chorobu\u201c.\r\n2. **V de\u0148 D sa vyvarujte zbyto\u010dn\u00e9mu stresu.** Ak nemus\u00edte v de\u0148 odletu \u00eds\u0165 do pr\u00e1ce, ur\u010dite necho\u010fte. Bato\u017einu si poba\u013ete u\u017e popredu, aby ste sa t\u00fdm zbyto\u010dne nezdr\u017eovali. A nedobiehajte na letisko na posledn\u00fa chv\u00ed\u013eu. Nielen\u017ee riskujete, \u017ee zme\u0161k\u00e1te let, ale nebudete ma\u0165 ani \u010das odd\u00fdchnu\u0165 si pred dlh\u00fdm letom.\r\n3. **Predstavte si v lietadle hodinky**. Tak toto je asi najv\u00e4\u010d\u0161ia vychyt\u00e1vka pravideln\u00fdch cestovate\u013eov. Predstavte si, \u017ee let\u00edte napr\u00edklad z Viedne do Mexika. Odlietate poobede o 14:45 stredoeur\u00f3pskeho \u010dasu, no v Mexiku je pr\u00e1ve vtedy r\u00e1no 7:45. Ru\u010di\u010dky na hodink\u00e1ch alebo \u010das na mobile si teda prestavte na va\u0161u cie\u013eov\u00fa destin\u00e1ciu. D\u013a\u017eka v\u00e1\u0161ho letu m\u00f4\u017ee by\u0165 r\u00f4zna, a to v z\u00e1vislosti od prestupov a \u010daka\u010diek na letisk\u00e1ch, no vy aspo\u0148 pribli\u017ene viete, o ko\u013ekej m\u00e1te dorazi\u0165. Prisp\u00f4sobte tomu aj d\u013a\u017eku sp\u00e1nku v lietadle a ak bude treba, dajte si masku na o\u010di alebo si nastavte aj bud\u00edk, aby ste to neprehnali a zobudili sa v \u201emexickom \u010dase\u201c. Jednoducho ria\u010fte sa pod\u013ea va\u0161ich prestaven\u00fdch hodiniek a jet lag v\u00e1s nezasko\u010d\u00ed.\r\n4. **K\u00e1vi\u010dkujte pod\u013ea novej krajiny.** Na va\u0161ich prestaven\u00fdch hodink\u00e1ch s\u00fa \u0161tyri hodiny r\u00e1no a letu\u0161ka v\u00e1m pon\u00faka k\u00e1vu. Ruku na srdce, pili by ste r\u00e1no o \u0161tvrtej v Mexiku k\u00e1vu? Pravdepodobne nie. \u010cierny n\u00e1poj teda odmietnite (aj keby ste na\u0148 mali zrovna chu\u0165) a vyp\u00fdtajte si ho v takom \u010dase, kedy by ste ho pili v Mexiku.\r\n5. **\u201eNie, rad\u0161ej vodu.\u201c** Tento v\u00fdrok sa d\u00e1 aplikova\u0165 aj na pitie alkoholu na palube, preto\u017ee alkohol v krvi v\u00e1s m\u00f4\u017ee naozaj rozhodi\u0165. Voda v\u00e1m dod\u00e1 energiu, nebude v\u00e1s bolie\u0165 hlava a s jej dostato\u010dnou z\u00e1sobou v tele sa aspo\u0148 predpriprav\u00edte napr\u00edklad na hor\u00face mexick\u00e9 po\u010dasie.\r\n\r\n\r\n**Tak \u010do, e\u0161te st\u00e1le neviete, ako zato\u010di\u0165 s jet lagom? \u263a**",
		"content_html": "<h6>Syndr\u00f3m zmeny \u010dasov\u00fdch p\u00e1sem postihuje takmer ka\u017ed\u00e9ho cestovate\u013ea, ktor\u00fd m\u00e1 za sebou dlh\u00fd let zo z\u00e1padu na v\u00fdchod alebo opa\u010dne. Na\u0161\u0165astie, existuje nieko\u013eko zaru\u010den\u00fdch met\u00f3d, ako ho zmierni\u0165.</h6>\n<p>Zimn\u00fd \u010di letn\u00fd \u010das? Pr\u00e1ve t\u00e1to ot\u00e1zka v poslednom obdob\u00ed rozdelila Eur\u00f3pu na dva t\u00e1bory. K\u00fdm pre niektor\u00fdch i\u0161lo o t\u00e9mu d\u00f4le\u017eit\u00fa, in\u00ed argumentovali t\u00fdm, \u017ee striedanie \u010dasu nem\u00e1 na \u013eud\u00ed ani z\u010faleka tak\u00fd vplyv ako syndr\u00f3m zmeny \u010dasov\u00fdch p\u00e1sem.</p>\n<p>Denne \u201ekri\u017euj\u00fa\u201c oblohu desa\u0165tis\u00edce lietadiel. Len tak pre zauj\u00edmavos\u0165, 3. j\u00fala 2018 bolo vo vzduchu a\u017e 202 157 strojov a pod\u013ea FlightRadar24 i\u0161lo zatia\u013e o najru\u0161nej\u0161\u00ed leteck\u00fd de\u0148 v hist\u00f3rii \u013eudstva.</p>\n<p>Zauj\u00edmav\u00fd je aj \u00fadaj, pod\u013ea ktor\u00e9ho sa vlani na letisk\u00e1ch \u201epremleli\u201c a\u017e \u0161tyri miliardy pasa\u017eierov, z \u010doho vypl\u00fdva, \u017ee z\u00e1ujem o lietanie rastie aj na\u010falej. Prispieva k tomu nielen to, \u017ee lietanie je r\u00fdchly a najbezpe\u010dnej\u0161\u00ed sp\u00f4sob dopravy, ale aj priazniv\u00e9 ceny l\u00edstkov, ktor\u00e9 si tak m\u00f4\u017ee dovoli\u0165 ove\u013ea viac \u013eud\u00ed.</p>\n<h5>Da\u0148 za r\u00fdchlos\u0165</h5>\n<p>Dlh\u00e9 lety zo z\u00e1padu na v\u00fdchod alebo opa\u010dne si v\u0161ak u cestuj\u00facich vyberaj\u00fa svoju da\u0148. Takmer ka\u017ed\u00e9ho cestovate\u013ea toti\u017e postihuje takzvan\u00fd jet lag.</p>\n<p>Ide o syndr\u00f3m zmeny \u010dasov\u00fdch p\u00e1sem, ktor\u00fdm trpia predov\u0161etk\u00fdm pasa\u017eieri, ktor\u00ed pravidelne lietaj\u00fa z jedn\u00e9ho konca sveta na druh\u00fd. Jet lag sa v\u0161ak nevyh\u00fdba ani ob\u010dasn\u00fdm cestuj\u00facim. </p>\n<p>Organizmus ka\u017ed\u00e9ho \u010dloveka toti\u017e funguje na z\u00e1klade ak\u00fdchsi biohod\u00edn, ktor\u00e9 m\u00f4\u017ee dlh\u00e9 cestovanie z bodu A do bodu B ve\u013emi \u013eahko vyradi\u0165 zo zabehnut\u00e9ho rytmu.</p>\n<p>Hoci si to mo\u017eno ani neuvedomujeme, na\u0161e telo je \u00fazko naviazan\u00e9 na slne\u010dn\u00e9 svetlo. Po\u010das 24 hod\u00edn sa v na\u0161om tele men\u00ed vn\u00fatorn\u00e1 teplota, hladina horm\u00f3nov, ale aj \u010fal\u0161ie biologick\u00e9 hodnoty. Ne\u010dakan\u00e1 zmena \u010dasov\u00e9ho p\u00e1sma n\u00e1s tak m\u00f4\u017ee takpovediac vyhodi\u0165 zo zabehnut\u00fdch ko\u013eaj\u00ed.</p>\n<p><img src=\"https://s3.eu-central-1.amazonaws.com/vacatuner-system-emails/vacatuner/jet-lag-02.jpg\" alt=\"foto\" title=\"toto je logo\" /></p>\n<h5>Od lietania a\u017e po depresiu</h5>\n<p>\u201eP\u00e1smov\u00fa chorobu\u201c v\u0161ak pre\u017e\u00edva ka\u017ed\u00fd organizmus \u00faplne individu\u00e1lne. Inak sa prejavuje u mal\u00fdch det\u00ed, u mlad\u00fdch \u013eud\u00ed pln\u00fdch energie a inak zase u t\u00fdch star\u0161\u00edch. Ve\u013ek\u00fd vplyv na jet lag m\u00e1 v\u0161ak nielen n\u00e1\u0161 vek, ale aj fyzick\u00e1 kond\u00edcia a celkov\u00fd \u017eivotn\u00fd \u0161t\u00fdl, ktor\u00fd vedieme.  </p>\n<h5>Zato\u010dte s jet lagom</h5>\n<p>Aj proti \u201ep\u00e1smovej chorobe\u201c sa v\u0161ak d\u00e1 \u00fa\u010dinne bojova\u0165. Sta\u010d\u00ed dodr\u017ea\u0165 zop\u00e1r \u00fa\u010dinn\u00fdch r\u00e1d:</p>\n<ol>\n<li><strong>Pred odletom sa poriadne vyspite.</strong> Toto je asi najd\u00f4le\u017eitej\u0161ie, preto\u017ee ak\u00e1ko\u013evek d\u00e1vka energie navy\u0161e v\u00e1m pom\u00f4\u017ee \u00fa\u010dinne prekona\u0165 \u201ep\u00e1smov\u00fa chorobu\u201c.</li>\n<li><strong>V de\u0148 D sa vyvarujte zbyto\u010dn\u00e9mu stresu.</strong> Ak nemus\u00edte v de\u0148 odletu \u00eds\u0165 do pr\u00e1ce, ur\u010dite necho\u010fte. Bato\u017einu si poba\u013ete u\u017e popredu, aby ste sa t\u00fdm zbyto\u010dne nezdr\u017eovali. A nedobiehajte na letisko na posledn\u00fa chv\u00ed\u013eu. Nielen\u017ee riskujete, \u017ee zme\u0161k\u00e1te let, ale nebudete ma\u0165 ani \u010das odd\u00fdchnu\u0165 si pred dlh\u00fdm letom.</li>\n<li><strong>Predstavte si v lietadle hodinky</strong>. Tak toto je asi najv\u00e4\u010d\u0161ia vychyt\u00e1vka pravideln\u00fdch cestovate\u013eov. Predstavte si, \u017ee let\u00edte napr\u00edklad z Viedne do Mexika. Odlietate poobede o 14:45 stredoeur\u00f3pskeho \u010dasu, no v Mexiku je pr\u00e1ve vtedy r\u00e1no 7:45. Ru\u010di\u010dky na hodink\u00e1ch alebo \u010das na mobile si teda prestavte na va\u0161u cie\u013eov\u00fa destin\u00e1ciu. D\u013a\u017eka v\u00e1\u0161ho letu m\u00f4\u017ee by\u0165 r\u00f4zna, a to v z\u00e1vislosti od prestupov a \u010daka\u010diek na letisk\u00e1ch, no vy aspo\u0148 pribli\u017ene viete, o ko\u013ekej m\u00e1te dorazi\u0165. Prisp\u00f4sobte tomu aj d\u013a\u017eku sp\u00e1nku v lietadle a ak bude treba, dajte si masku na o\u010di alebo si nastavte aj bud\u00edk, aby ste to neprehnali a zobudili sa v \u201emexickom \u010dase\u201c. Jednoducho ria\u010fte sa pod\u013ea va\u0161ich prestaven\u00fdch hodiniek a jet lag v\u00e1s nezasko\u010d\u00ed.</li>\n<li><strong>K\u00e1vi\u010dkujte pod\u013ea novej krajiny.</strong> Na va\u0161ich prestaven\u00fdch hodink\u00e1ch s\u00fa \u0161tyri hodiny r\u00e1no a letu\u0161ka v\u00e1m pon\u00faka k\u00e1vu. Ruku na srdce, pili by ste r\u00e1no o \u0161tvrtej v Mexiku k\u00e1vu? Pravdepodobne nie. \u010cierny n\u00e1poj teda odmietnite (aj keby ste na\u0148 mali zrovna chu\u0165) a vyp\u00fdtajte si ho v takom \u010dase, kedy by ste ho pili v Mexiku.</li>\n<li><strong>\u201eNie, rad\u0161ej vodu.\u201c</strong> Tento v\u00fdrok sa d\u00e1 aplikova\u0165 aj na pitie alkoholu na palube, preto\u017ee alkohol v krvi v\u00e1s m\u00f4\u017ee naozaj rozhodi\u0165. Voda v\u00e1m dod\u00e1 energiu, nebude v\u00e1s bolie\u0165 hlava a s jej dostato\u010dnou z\u00e1sobou v tele sa aspo\u0148 predpriprav\u00edte napr\u00edklad na hor\u00face mexick\u00e9 po\u010dasie.</li>\n</ol>\n<p><strong>Tak \u010do, e\u0161te st\u00e1le neviete, ako zato\u010di\u0165 s jet lagom? \u263a</strong></p>",
		"published_at": "2019-01-15 23:00:00",
		"published": 1,
		"created_at": "2019-01-16 11:39:35",
		"updated_at": "2019-01-16 13:04:03",
		"author_name": "",
		"priority": 1,
		"agency_id": 1,
		"agency_code": "vct",
		"_tags": [{
			"id": 12,
			"name": "v\u0161eobecn\u00e9",
			"created_at": "2019-01-16 11:39:16",
			"updated_at": "2019-01-16 11:39:16",
			"slug": "vseobecne",
			"agency_id": 1,
			"agency_code": "vct",
			"pivot": {
				"post_id": 8,
				"tag_id": 12
			}
		}],
		"photos": [{
			"id": 8,
			"disk_name": "5c3f17c8241b5504141237.jpg",
			"file_name": "jet-lag-01.jpg",
			"file_size": 2063444,
			"content_type": "image/jpeg",
			"title": null,
			"description": null,
			"field": "featured_images",
			"sort_order": 8,
			"created_at": "2019-01-16 11:38:48",
			"updated_at": "2019-01-16 11:39:35",
			"path": "assets/mocks/images/blog1.jpg",
			"extension": "jpg"
		}],
		"summary": "<h6>Syndr\u00f3m zmeny \u010dasov\u00fdch p\u00e1sem postihuje takmer ka\u017ed\u00e9ho cestovate\u013ea, ktor\u00fd m\u00e1 za sebou dlh\u00fd let zo z\u00e1padu na v\u00fdchod alebo opa\u010dne. Na\u0161\u0165astie, existuje nieko\u013eko zaru\u010den\u00fdch met\u00f3d, ako ho zmierni\u0165.</h6>\n<p>Zimn\u00fd \u010di letn\u00fd \u010das? Pr\u00e1ve t\u00e1to ot\u00e1zka v poslednom obdob\u00ed rozdelila Eur\u00f3pu na dva t\u00e1bory. K\u00fdm pre niektor\u00fdch i\u0161lo o t\u00e9mu d\u00f4le\u017eit\u00fa, in\u00ed argumentovali t\u00fdm, \u017ee striedanie \u010dasu nem\u00e1 na \u013eud\u00ed ani z\u010faleka tak\u00fd vplyv ako syndr\u00f3m zmeny \u010dasov\u00fdch p\u00e1sem.</p>\n<p>Denne \u201ekri\u017euj\u00fa\u201c oblohu desa\u0165tis\u00edce lietadiel. Len tak pre zauj\u00edmavos\u0165, 3. j\u00fala 2018 bolo vo vzduchu a\u017e 202 157 strojov a pod\u013ea FlightRadar24 i\u0161lo zatia\u013e o najru\u0161nej\u0161\u00ed</p>",
		"has_summary": true
	}
}
