{
	"success": "blog",
	"blog": {
		"id": 9,
		"user_id": 3,
		"title": "Boj\u00edte sa \u00eds\u0165 s de\u0165mi na palubu lietadla? 4 tipy ako to zvl\u00e1dnu\u0165.",
		"slug": "bojite-sa-ist-s-detmi-na-palubu-lietadla-4-tipy-ako-zvladnut",
		"excerpt": "",
		"content": "###### Lietanie sa stalo be\u017enou s\u00fa\u010das\u0165ou modern\u00e9ho \u017eivota a prek\u00e1\u017ekou nemus\u00ed by\u0165 ani \u010derstv\u00fd pr\u00edrastok do rodiny, dokonca ani po\u010das dovolenky. Lietanie de\u0165om nesp\u00f4sobuje \u017eiadne zdravotn\u00e9 komplik\u00e1cie, dokonca ho zn\u00e1\u0161aj\u00fa lep\u0161ie ne\u017e zd\u013ahav\u00e9 cesty v aute.\r\n\r\nLeteck\u00e9 spolo\u010dnosti okrem toho v\u00e4\u010d\u0161inou vych\u00e1dzaj\u00fa rodin\u00e1m s mal\u00fdmi de\u0165mi v \u00fastrety. Pokia\u013e v\u00e1s ale ani toto neupokojilo a chcete by\u0165 na cestu s va\u0161imi ratoles\u0165ami \u010do najlep\u0161ie pripraven\u00ed, m\u00e1me pre v\u00e1s \u0161tyri rady, v\u010faka ktor\u00fdm sa nebudete tr\u00e1pi\u0165 pred n\u00e1ro\u010dn\u00fdm presunom na rodinn\u00fa dovolenku.\r\n\r\n**Aj s mal\u00fdmi pasa\u017eiermi m\u00f4\u017ee by\u0165 lietanie bez stresu, sta\u010d\u00ed dobr\u00e1 pr\u00edprava**\r\n\r\nZ\u00e1kladom \u00faspechu je v\u0161etko dobre napl\u00e1nova\u0165 a pripravi\u0165. U\u017e pri rezerv\u00e1cii je dobr\u00e9 informova\u0165 cestovn\u00fa kancel\u00e1riu alebo predajcu leteniek. \u201ePri v\u00fdbere miest v lietadle si rezervujte sedadl\u00e1 ide\u00e1lne v prvom rade alebo pri okne. V prvom rade budete ma\u0165 viac miesta na va\u0161e osobn\u00e9 veci, pri okne sa zase die\u0165a m\u00f4\u017ee pozera\u0165 von a lep\u0161ie sa zabav\u00ed,\u201c odpor\u00fa\u010da Miroslava Zelen\u00e1kov\u00e1, Country Manager Slovakia port\u00e1lu superletuska.sk. Pokia\u013e cestujete s novorodeniatkom alebo bato\u013ea\u0165om, ur\u010dite nezabudnite na cuml\u00edk. V lietadle si m\u00f4\u017eete necha\u0165 ohria\u0165 vlastn\u00fa stravu v doj\u010denskej f\u013ea\u0161ti\u010dke. Na prepravu detskej stravy na palube lietadla sa v\u0161ak vz\u0165ahuj\u00fa pomerne pr\u00edsne bezpe\u010dnostn\u00e9 pravidl\u00e1. Po\u010d\u00edtajte napr\u00edklad s t\u00fdm, \u017ee pri odbaven\u00ed budete musie\u0165 pripraven\u00e9 jedlo vo f\u013ea\u0161ke ochutna\u0165. A nezabudnite tie\u017e, \u017ee zapisovanie det\u00ed do pasu rodi\u010dov u\u017e nie je mo\u017en\u00e9, ka\u017ed\u00e9 die\u0165a vr\u00e1tane novorodencov potrebuje vlastn\u00fd cestovn\u00fd pas.\r\n\r\n**Ani s ko\u010d\u00edkom si nemus\u00edte l\u00e1ma\u0165 hlavu**\r\n\r\nPreprava ko\u010d\u00edka nemus\u00ed by\u0165 probl\u00e9m. Pri klasick\u00fdch leteck\u00fdch spolo\u010dnostiach je mo\u017en\u00e9 pre va\u0161e die\u0165a mlad\u0161ie ne\u017e dva roky odbavi\u0165 skladac\u00ed ko\u010d\u00edk ako samostatn\u00fa bato\u017einu. Jeho preprava je zdarma, nemus\u00edte ni\u010d dopl\u00e1ca\u0165. Rodiny s de\u0165mi maj\u00fa obvykle prednos\u0165 pred ostatn\u00fdmi cestuj\u00facimi, a preto sa nemus\u00edte ob\u00e1va\u0165 nepr\u00edjemn\u00e9ho zdr\u017eovania a stresu pri \u010dakan\u00ed v rade. S ko\u010d\u00edkom pr\u00eddete a\u017e k samotn\u00e9mu vchodu do lietadla, tam v\u00e1m bude odobran\u00fd a person\u00e1l ho n\u00e1sledne ulo\u017e\u00ed do bato\u017einov\u00e9ho priestoru. Ihne\u010f po prist\u00e1t\u00ed je ko\u010d\u00edk cestuj\u00facim pri v\u00fdstupe z lietadla vydan\u00fd. Pri n\u00edzkon\u00e1kladov\u00fdch spolo\u010dnostiach to v\u0161ak nemus\u00ed by\u0165 podmienkou, odpor\u00fa\u010dame preto si rad\u0161ej vopred situ\u00e1ciu s ko\u010d\u00edkom overi\u0165.\r\n\r\n**Detsk\u00e1 letenka v\u00e1s nezruinuje, prezrite si ale akcie**\r\n\r\nDeti sa v leteckej preprave \u0161tandardne rozde\u013euj\u00fa medzi dve z\u00e1kladn\u00e9 vekov\u00e9 kateg\u00f3rie, ale podmienky jednotliv\u00fdch leteck\u00fdch spolo\u010dnost\u00ed sa m\u00f4\u017eu l\u00ed\u0161i\u0165. Prvou kateg\u00f3riou s\u00fa najmen\u0161ie deti do dvoch rokov, ktor\u00e9 cestuj\u00fa bu\u010f zdarma alebo s 90 % z\u013eavou. Nemaj\u00fa v\u0161ak n\u00e1rok na vlastn\u00e9 sedadlo ani pr\u00edru\u010dn\u00fa bato\u017einu. Za pr\u00edplatok ale m\u00f4\u017eete svojej ratolesti samostatn\u00e9 sedadlo prik\u00fapi\u0165. Pri vzlietan\u00ed, prist\u00e1t\u00ed a v dobe, kedy svieti n\u00e1pis \u201ePrip\u00fatajte sa\u201c, v\u00e1m v\u0161ak mus\u00ed die\u0165a sedie\u0165 na kolen\u00e1ch a by\u0165 prip\u00fatan\u00e9 \u0161peci\u00e1lnym bezpe\u010dnostn\u00fdm p\u00e1som spolu s vami. Alebo m\u00f4\u017ee sedie\u0165 vo vlastnej autoseda\u010dke, t\u00e1to v\u0161ak mus\u00ed by\u0165 certifikovan\u00e1 pre pou\u017eitie v lietadle. Druhou kateg\u00f3riou s\u00fa deti od 2 do 12 rokov. Tie u\u017e musia ma\u0165 svoje sedadlo a \u010do sa t\u00fdka bato\u017einy, platia pre nich rovnak\u00e9 podmienky ako pre dospel\u00fdch. Leteck\u00e9 spolo\u010dnosti \u010dasto pon\u00fakaj\u00fa \u0161peci\u00e1lne detsk\u00e9 tarify, v\u00e4\u010d\u0161inou so z\u013eavou v rozmedz\u00ed 25-50 %. Na letenk\u00e1ch tak m\u00f4\u017eete v\u00fdrazne u\u0161etri\u0165, av\u0161ak niekedy pri najlacnej\u0161\u00edch akciov\u00fdch tarif\u00e1ch u\u017e dopravca z\u013eavu pre die\u0165a nepon\u00faka.\r\n\r\n**Die\u0165a zvl\u00e1dne let i bez v\u00e1s. Vybavte si to pri rezerv\u00e1cii leteniek**\r\n\r\nM\u00f4\u017ee sa sta\u0165, \u017ee nem\u00e1te na v\u00fdber a potrebujete die\u0165a prepravi\u0165 lietadlom napr\u00edklad na jazykov\u00fd kurz do zahrani\u010dia. Nebojte sa ho zveri\u0165 person\u00e1lu. U\u017e pri rezerv\u00e1cii letenky upozornite agenta, \u017ee va\u0161e die\u0165a bude cestova\u0165 samotn\u00e9 a m\u00e1te z\u00e1ujem o t\u00fato slu\u017ebu. V ide\u00e1lnom pr\u00edpade by to malo by\u0165 aspo\u0148 48 hod\u00edn pred odletom, aby sa person\u00e1l stihol na v\u0161etko dobre pripravi\u0165. Potom vypl\u0148te formul\u00e1r s detailn\u00fdmi \u00fadajmi o v\u00e1s, va\u0161om die\u0165ati a predov\u0161etk\u00fdm osobe, ktor\u00e1 ho v mieste pristania vyzdvihne. Konkr\u00e9tny formul\u00e1r v\u00e1m dod\u00e1 a upresn\u00ed agent pod\u013ea konkr\u00e9tneho dopravcu, nako\u013eko tieto formality z\u00e1visia pr\u00e1ve od neho. Nie je d\u00f4vod na obavy, va\u0161a ratoles\u0165 bude pod neust\u00e1lym doh\u013eadom, a to i v lietadle. B\u00fdvaj\u00fa v nich \u0161peci\u00e1lne vyhraden\u00e9 sedadl\u00e1 s dobr\u00fdm pr\u00edstupom a v dosahu letu\u0161iek. Die\u0165a \u201codovzd\u00e1te\u201d na letisku zodpovedn\u00e9mu pracovn\u00edkovi, ktor\u00fd ho prevedie odbaven\u00edm i kontrolami. Priamo od neho si ho prevezme letu\u0161ka, ktor\u00e1 ho zase po prist\u00e1t\u00ed posunie pracovn\u00edkovi cie\u013eov\u00e9ho letiska a ten ho odprevad\u00ed a\u017e k vami ur\u010denej osobe. T\u00e1to slu\u017eba m\u00f4\u017ee by\u0165 v\u0161ak spoplatnen\u00e1. Bu\u010f pr\u00edplatkom k cene letenky alebo sa na die\u0165a bez dozoru vz\u0165ahuje dospel\u00e1 tarifa bez detskej z\u013eavy. T\u00e1to starostlivos\u0165 je ur\u010den\u00e1 predov\u0161etk\u00fdm pre deti vo veku od 5 do 11 rokov, rovnak\u00fd servis ale m\u00f4\u017eu vyu\u017ei\u0165 deti a\u017e do veku 17 rokov",
		"content_html": "<h6>Lietanie sa stalo be\u017enou s\u00fa\u010das\u0165ou modern\u00e9ho \u017eivota a prek\u00e1\u017ekou nemus\u00ed by\u0165 ani \u010derstv\u00fd pr\u00edrastok do rodiny, dokonca ani po\u010das dovolenky. Lietanie de\u0165om nesp\u00f4sobuje \u017eiadne zdravotn\u00e9 komplik\u00e1cie, dokonca ho zn\u00e1\u0161aj\u00fa lep\u0161ie ne\u017e zd\u013ahav\u00e9 cesty v aute.</h6>\n<p>Leteck\u00e9 spolo\u010dnosti okrem toho v\u00e4\u010d\u0161inou vych\u00e1dzaj\u00fa rodin\u00e1m s mal\u00fdmi de\u0165mi v \u00fastrety. Pokia\u013e v\u00e1s ale ani toto neupokojilo a chcete by\u0165 na cestu s va\u0161imi ratoles\u0165ami \u010do najlep\u0161ie pripraven\u00ed, m\u00e1me pre v\u00e1s \u0161tyri rady, v\u010faka ktor\u00fdm sa nebudete tr\u00e1pi\u0165 pred n\u00e1ro\u010dn\u00fdm presunom na rodinn\u00fa dovolenku.</p>\n<p><strong>Aj s mal\u00fdmi pasa\u017eiermi m\u00f4\u017ee by\u0165 lietanie bez stresu, sta\u010d\u00ed dobr\u00e1 pr\u00edprava</strong></p>\n<p>Z\u00e1kladom \u00faspechu je v\u0161etko dobre napl\u00e1nova\u0165 a pripravi\u0165. U\u017e pri rezerv\u00e1cii je dobr\u00e9 informova\u0165 cestovn\u00fa kancel\u00e1riu alebo predajcu leteniek. \u201ePri v\u00fdbere miest v lietadle si rezervujte sedadl\u00e1 ide\u00e1lne v prvom rade alebo pri okne. V prvom rade budete ma\u0165 viac miesta na va\u0161e osobn\u00e9 veci, pri okne sa zase die\u0165a m\u00f4\u017ee pozera\u0165 von a lep\u0161ie sa zabav\u00ed,\u201c odpor\u00fa\u010da Miroslava Zelen\u00e1kov\u00e1, Country Manager Slovakia port\u00e1lu superletuska.sk. Pokia\u013e cestujete s novorodeniatkom alebo bato\u013ea\u0165om, ur\u010dite nezabudnite na cuml\u00edk. V lietadle si m\u00f4\u017eete necha\u0165 ohria\u0165 vlastn\u00fa stravu v doj\u010denskej f\u013ea\u0161ti\u010dke. Na prepravu detskej stravy na palube lietadla sa v\u0161ak vz\u0165ahuj\u00fa pomerne pr\u00edsne bezpe\u010dnostn\u00e9 pravidl\u00e1. Po\u010d\u00edtajte napr\u00edklad s t\u00fdm, \u017ee pri odbaven\u00ed budete musie\u0165 pripraven\u00e9 jedlo vo f\u013ea\u0161ke ochutna\u0165. A nezabudnite tie\u017e, \u017ee zapisovanie det\u00ed do pasu rodi\u010dov u\u017e nie je mo\u017en\u00e9, ka\u017ed\u00e9 die\u0165a vr\u00e1tane novorodencov potrebuje vlastn\u00fd cestovn\u00fd pas.</p>\n<p><strong>Ani s ko\u010d\u00edkom si nemus\u00edte l\u00e1ma\u0165 hlavu</strong></p>\n<p>Preprava ko\u010d\u00edka nemus\u00ed by\u0165 probl\u00e9m. Pri klasick\u00fdch leteck\u00fdch spolo\u010dnostiach je mo\u017en\u00e9 pre va\u0161e die\u0165a mlad\u0161ie ne\u017e dva roky odbavi\u0165 skladac\u00ed ko\u010d\u00edk ako samostatn\u00fa bato\u017einu. Jeho preprava je zdarma, nemus\u00edte ni\u010d dopl\u00e1ca\u0165. Rodiny s de\u0165mi maj\u00fa obvykle prednos\u0165 pred ostatn\u00fdmi cestuj\u00facimi, a preto sa nemus\u00edte ob\u00e1va\u0165 nepr\u00edjemn\u00e9ho zdr\u017eovania a stresu pri \u010dakan\u00ed v rade. S ko\u010d\u00edkom pr\u00eddete a\u017e k samotn\u00e9mu vchodu do lietadla, tam v\u00e1m bude odobran\u00fd a person\u00e1l ho n\u00e1sledne ulo\u017e\u00ed do bato\u017einov\u00e9ho priestoru. Ihne\u010f po prist\u00e1t\u00ed je ko\u010d\u00edk cestuj\u00facim pri v\u00fdstupe z lietadla vydan\u00fd. Pri n\u00edzkon\u00e1kladov\u00fdch spolo\u010dnostiach to v\u0161ak nemus\u00ed by\u0165 podmienkou, odpor\u00fa\u010dame preto si rad\u0161ej vopred situ\u00e1ciu s ko\u010d\u00edkom overi\u0165.</p>\n<p><strong>Detsk\u00e1 letenka v\u00e1s nezruinuje, prezrite si ale akcie</strong></p>\n<p>Deti sa v leteckej preprave \u0161tandardne rozde\u013euj\u00fa medzi dve z\u00e1kladn\u00e9 vekov\u00e9 kateg\u00f3rie, ale podmienky jednotliv\u00fdch leteck\u00fdch spolo\u010dnost\u00ed sa m\u00f4\u017eu l\u00ed\u0161i\u0165. Prvou kateg\u00f3riou s\u00fa najmen\u0161ie deti do dvoch rokov, ktor\u00e9 cestuj\u00fa bu\u010f zdarma alebo s 90 % z\u013eavou. Nemaj\u00fa v\u0161ak n\u00e1rok na vlastn\u00e9 sedadlo ani pr\u00edru\u010dn\u00fa bato\u017einu. Za pr\u00edplatok ale m\u00f4\u017eete svojej ratolesti samostatn\u00e9 sedadlo prik\u00fapi\u0165. Pri vzlietan\u00ed, prist\u00e1t\u00ed a v dobe, kedy svieti n\u00e1pis \u201ePrip\u00fatajte sa\u201c, v\u00e1m v\u0161ak mus\u00ed die\u0165a sedie\u0165 na kolen\u00e1ch a by\u0165 prip\u00fatan\u00e9 \u0161peci\u00e1lnym bezpe\u010dnostn\u00fdm p\u00e1som spolu s vami. Alebo m\u00f4\u017ee sedie\u0165 vo vlastnej autoseda\u010dke, t\u00e1to v\u0161ak mus\u00ed by\u0165 certifikovan\u00e1 pre pou\u017eitie v lietadle. Druhou kateg\u00f3riou s\u00fa deti od 2 do 12 rokov. Tie u\u017e musia ma\u0165 svoje sedadlo a \u010do sa t\u00fdka bato\u017einy, platia pre nich rovnak\u00e9 podmienky ako pre dospel\u00fdch. Leteck\u00e9 spolo\u010dnosti \u010dasto pon\u00fakaj\u00fa \u0161peci\u00e1lne detsk\u00e9 tarify, v\u00e4\u010d\u0161inou so z\u013eavou v rozmedz\u00ed 25-50 %. Na letenk\u00e1ch tak m\u00f4\u017eete v\u00fdrazne u\u0161etri\u0165, av\u0161ak niekedy pri najlacnej\u0161\u00edch akciov\u00fdch tarif\u00e1ch u\u017e dopravca z\u013eavu pre die\u0165a nepon\u00faka.</p>\n<p><strong>Die\u0165a zvl\u00e1dne let i bez v\u00e1s. Vybavte si to pri rezerv\u00e1cii leteniek</strong></p>\n<p>M\u00f4\u017ee sa sta\u0165, \u017ee nem\u00e1te na v\u00fdber a potrebujete die\u0165a prepravi\u0165 lietadlom napr\u00edklad na jazykov\u00fd kurz do zahrani\u010dia. Nebojte sa ho zveri\u0165 person\u00e1lu. U\u017e pri rezerv\u00e1cii letenky upozornite agenta, \u017ee va\u0161e die\u0165a bude cestova\u0165 samotn\u00e9 a m\u00e1te z\u00e1ujem o t\u00fato slu\u017ebu. V ide\u00e1lnom pr\u00edpade by to malo by\u0165 aspo\u0148 48 hod\u00edn pred odletom, aby sa person\u00e1l stihol na v\u0161etko dobre pripravi\u0165. Potom vypl\u0148te formul\u00e1r s detailn\u00fdmi \u00fadajmi o v\u00e1s, va\u0161om die\u0165ati a predov\u0161etk\u00fdm osobe, ktor\u00e1 ho v mieste pristania vyzdvihne. Konkr\u00e9tny formul\u00e1r v\u00e1m dod\u00e1 a upresn\u00ed agent pod\u013ea konkr\u00e9tneho dopravcu, nako\u013eko tieto formality z\u00e1visia pr\u00e1ve od neho. Nie je d\u00f4vod na obavy, va\u0161a ratoles\u0165 bude pod neust\u00e1lym doh\u013eadom, a to i v lietadle. B\u00fdvaj\u00fa v nich \u0161peci\u00e1lne vyhraden\u00e9 sedadl\u00e1 s dobr\u00fdm pr\u00edstupom a v dosahu letu\u0161iek. Die\u0165a \u201codovzd\u00e1te\u201d na letisku zodpovedn\u00e9mu pracovn\u00edkovi, ktor\u00fd ho prevedie odbaven\u00edm i kontrolami. Priamo od neho si ho prevezme letu\u0161ka, ktor\u00e1 ho zase po prist\u00e1t\u00ed posunie pracovn\u00edkovi cie\u013eov\u00e9ho letiska a ten ho odprevad\u00ed a\u017e k vami ur\u010denej osobe. T\u00e1to slu\u017eba m\u00f4\u017ee by\u0165 v\u0161ak spoplatnen\u00e1. Bu\u010f pr\u00edplatkom k cene letenky alebo sa na die\u0165a bez dozoru vz\u0165ahuje dospel\u00e1 tarifa bez detskej z\u013eavy. T\u00e1to starostlivos\u0165 je ur\u010den\u00e1 predov\u0161etk\u00fdm pre deti vo veku od 5 do 11 rokov, rovnak\u00fd servis ale m\u00f4\u017eu vyu\u017ei\u0165 deti a\u017e do veku 17 rokov</p>",
		"published_at": "2019-01-15 23:00:00",
		"published": 1,
		"created_at": "2019-01-16 12:29:09",
		"updated_at": "2019-01-16 12:29:09",
		"author_name": "",
		"priority": 1,
		"agency_id": 1,
		"agency_code": "vct",
		"_tags": [{
			"id": 12,
			"name": "v\u0161eobecn\u00e9",
			"created_at": "2019-01-16 11:39:16",
			"updated_at": "2019-01-16 11:39:16",
			"slug": "vseobecne",
			"agency_id": 1,
			"agency_code": "vct",
			"pivot": {
				"post_id": 9,
				"tag_id": 12
			}
		}],
		"photos": [{
			"id": 17,
			"disk_name": "5c3f2386b1476343413045.jpg",
			"file_name": "cestujeme-s-detmi.jpg",
			"file_size": 171782,
			"content_type": "image/jpeg",
			"title": null,
			"description": null,
			"field": "featured_images",
			"sort_order": 17,
			"created_at": "2019-01-16 12:28:55",
			"updated_at": "2019-01-16 12:29:09",
			"path": "assets/mocks/images/blog1.jpg",
			"extension": "jpg"
		}],
		"summary": "<h6>Lietanie sa stalo be\u017enou s\u00fa\u010das\u0165ou modern\u00e9ho \u017eivota a prek\u00e1\u017ekou nemus\u00ed by\u0165 ani \u010derstv\u00fd pr\u00edrastok do rodiny, dokonca ani po\u010das dovolenky. Lietanie de\u0165om nesp\u00f4sobuje \u017eiadne zdravotn\u00e9 komplik\u00e1cie, dokonca ho zn\u00e1\u0161aj\u00fa lep\u0161ie ne\u017e zd\u013ahav\u00e9 cesty v aute.</h6>\n<p>Leteck\u00e9 spolo\u010dnosti okrem toho v\u00e4\u010d\u0161inou vych\u00e1dzaj\u00fa rodin\u00e1m s mal\u00fdmi de\u0165mi v \u00fastrety. Pokia\u013e v\u00e1s ale ani toto neupokojilo a chcete by\u0165 na cestu s va\u0161imi ratoles\u0165ami \u010do najlep\u0161ie pripraven\u00ed, m\u00e1me pre v\u00e1s \u0161tyri rady, v\u010faka ktor\u00fdm sa nebudete tr\u00e1pi\u0165 pred n\u00e1ro\u010dn\u00fdm presunom na rodinn\u00fa dovolenku.</p>\n<p><strong>Aj s mal\u00fdmi pasa\u017eiermi m\u00f4\u017ee by\u0165 lietanie bez stresu, sta\u010d\u00ed dobr\u00e1</strong></p>",
		"has_summary": true
	}
}
