{
    "success": "agency mock",
    "agency": {
        "agency_id": 1,
        "agency_code": "vct",
        "name": "CK Vacatuner",
        "email": "spytajtesa@vacatuner.com",
		"shortDescription": "Cestovná kancelária",
        "description": "<p>vacatuner mobile platform will help you increase revenue and upgrade your customers’ experience by connecting travel with technology.<\/p>",
        "tel": "+421 901 234 567",
        "web": "www.vacatuner.com",
		"contact_person_name": "Mock Kontaktny",
		"contact_person_post": "Kontaktna osoba",
		"contact_person_photo": {
			"image": {
				"path": "assets/icon/usercall-icon.png"
			}
		},
        "default_language_id": "sk",
        "date_invited": null,
        "created_at": "2018-12-06 15:46:52",
        "updated_at": "2018-12-06 15:46:52",
        "deleted_at": null,
		"photo": {
			"path": "assets/images/vct-logo-app.png"
		},
        "logo": "assets/images/vct-logo-app.png",
        "infos_content": "Ipsum dolor sit amet consectetur adipisicing elit. Aliquid maxime rerum doloribus laborum accusantium enim magni? Debitis voluptas ducimus iusto obcaecati in quam, deleniti, voluptatibus laborum commodi."
    }
}
