{
    "success": "categories mock",
    "data": [
        {
            "category_id": 1,
            "name": "Európa",
			"label": "europa MOCK"
        },
        {
            "category_id": 2,
            "name": "Ázia",
			"label": "azia"
        },
        {
            "category_id": 3,
            "name": "Východná Európa",
			"label": "vychodna-europa"
        },
        {
            "category_id": 4,
            "name": "Dovolenka na pláži",
			"label": "dovolenka-na-plazi"
        },
        {
            "category_id": 5,
            "name": "Letná dovolenka",
			"label": "letna-dovolenka"
        }
    ]
}
