{
    "success": "delegate mock",
    "delegate": {
        "delegate_id": 1,
        "agency_id": 1,
        "agency_code": "vct",
        "user_id": null,
        "first_name": "Peter",
        "last_name": "Delegátny",
        "email": "testing@wezeo.com",
        "description": "<p>Lorem ipsum dolor sit amet consectetur adipisicing elit. Aliquid maxime rerum doloribus laborum accusantium enim magni? Debitis voluptas ducimus iusto obcaecati in quam, deleniti, voluptatibus laborum commodi unde, suscipit qui.<\/p>",
        "contacts":  [
	        {
	            "type": "phone",
	            "value": "0909090909"
	        }
	    ],
        "default_language_id": "sk",
        "date_invited": null,
        "created_at": "2018-12-06 15:46:52",
        "updated_at": "2018-12-06 15:46:52",
        "deleted_at": null,
        "photo": "assets/mocks/images/user.jpg",
        "infos_content": "Ipsum dolor sit amet consectetur adipisicing elit. Aliquid maxime rerum doloribus laborum accusantium enim magni? Debitis voluptas ducimus iusto obcaecati in quam, deleniti, voluptatibus laborum commodi."
    }
}
