<?xml version="1.0" encoding="UTF-8"?>
<svg width="27px" height="24px" viewBox="0 0 27 24" version="1.1" xmlns="http://www.w3.org/2000/svg" xmlns:xlink="http://www.w3.org/1999/xlink">
    <!-- Generator: Sketch 52.4 (67378) - http://www.bohemiancoding.com/sketch -->
    <title>Spravy</title>
    <desc>Created with Sketch.</desc>
    <g id="Timeline-+-detail" stroke="none" stroke-width="1" fill="none" fill-rule="evenodd">
        <g id="05_01_Timeline_menu" transform="translate(-305.000000, -619.000000)" fill="#8897AB" fill-rule="nonzero">
            <g id="Spravy" transform="translate(305.000000, 619.000000)">
                <path d="M3,1 C1.8954305,1 1,1.8954305 1,3 L1,15.7948454 C1,16.8994149 1.8954305,17.7948454 3,17.7948454 L7.60840422,17.7948454 L7.60840422,22.6383942 L14.7304983,17.7948454 L24,17.7948454 C25.1045695,17.7948454 26,16.8994149 26,15.7948454 L26,3 C26,1.8954305 25.1045695,1 24,1 L3,1 Z" id="Rectangle" stroke="#F26522" stroke-width="2" fill="#F26522" fill-opacity="0.2"></path>
                <circle fill="#F26522" id="Oval" cx="8.25" cy="9.25" r="1.25"></circle>
                <circle fill="#F26522" id="Oval-Copy-5" cx="13.25" cy="9.25" r="1.25"></circle>
                <circle fill="#F26522" id="Oval-Copy-6" cx="18.25" cy="9.25" r="1.25"></circle>
            </g>
        </g>
    </g>
</svg>
