<?xml version="1.0" encoding="UTF-8"?>
<svg width="10px" height="11px" viewBox="0 0 10 11" version="1.1" xmlns="http://www.w3.org/2000/svg" xmlns:xlink="http://www.w3.org/1999/xlink">
    <!-- Generator: Sketch 52.2 (67145) - http://www.bohemiancoding.com/sketch -->
    <title>cas@2x</title>
    <desc>Created with Sketch.</desc>
    <g id="cas" stroke="none" stroke-width="1" fill="#FFFFFF" fill-rule="evenodd">
        <path d="M4.84373845,1 C5.7161323,1 6.52342195,1.21809854 7.26560768,1.65429532 C8.00779341,2.09049209 8.59698481,2.6796835 9.03318159,3.42186923 C9.46937837,4.16405496 9.6874769,4.9713446 9.6874769,5.84373845 C9.6874769,6.7161323 9.46937837,7.52342195 9.03318159,8.26560768 C8.59698481,9.00779341 8.00779341,9.59698481 7.26560768,10.0331816 C6.52342195,10.4693784 5.7161323,10.6874769 4.84373845,10.6874769 C3.9713446,10.6874769 3.16405496,10.4693784 2.42186923,10.0331816 C1.6796835,9.59698481 1.09049209,9.00779341 0.654295315,8.26560768 C0.218098538,7.52342195 0,6.7161323 0,5.84373845 C0,4.9713446 0.218098538,4.16405496 0.654295315,3.42186923 C1.09049209,2.6796835 1.6796835,2.09049209 2.42186923,1.65429532 C3.16405496,1.21809854 3.9713446,1 4.84373845,1 Z M4.84373845,9.74997914 C5.54686178,9.74997914 6.19790179,9.57419831 6.79685879,9.22263665 C7.3958158,8.87107498 7.87107498,8.3958158 8.22263665,7.79685879 C8.57419831,7.19790179 8.74997914,6.54686178 8.74997914,5.84373845 C8.74997914,5.14061513 8.57419831,4.48957511 8.22263665,3.89061811 C7.87107498,3.2916611 7.3958158,2.81640192 6.79685879,2.46484026 C6.19790179,2.1132786 5.54686178,1.93749776 4.84373845,1.93749776 C4.14061513,1.93749776 3.48957511,2.1132786 2.89061811,2.46484026 C2.2916611,2.81640192 1.81640192,3.2916611 1.46484026,3.89061811 C1.1132786,4.48957511 0.937497765,5.14061513 0.937497765,5.84373845 C0.937497765,6.54686178 1.1132786,7.19790179 1.46484026,7.79685879 C1.81640192,8.3958158 2.2916611,8.87107498 2.89061811,9.22263665 C3.48957511,9.57419831 4.14061513,9.74997914 4.84373845,9.74997914 Z M4.39452077,6.50779937 C4.32941686,6.45571606 4.29686476,6.39061215 4.29686476,6.31248733 L4.29686476,3.10936997 C4.29686476,3.04426606 4.31965126,2.98892745 4.36522397,2.94335474 C4.41079668,2.89778203 4.46613528,2.87499553 4.5312392,2.87499553 L5.15623771,2.87499553 C5.22134162,2.87499553 5.27668023,2.89778203 5.32225294,2.94335474 C5.36782564,2.98892745 5.39061215,3.04426606 5.39061215,3.10936997 L5.39061215,5.88280086 L6.69920278,6.82029862 C6.75128609,6.85936103 6.78058289,6.91144434 6.78709319,6.97654825 C6.7936035,7.04165216 6.77732759,7.10024577 6.73826518,7.15232908 L6.38670352,7.66014037 C6.34764112,7.71222368 6.29555781,7.74477549 6.2304539,7.75779639 C6.16534998,7.77081729 6.10675637,7.75779639 6.05467306,7.71873398 L4.39452077,6.50779937 Z"></path>
    </g>
</svg>
